Projet final : ANOVA à Mesures Répétées
…
Préparation

data_acp <- df_wide

## Sélection des colonnes numériques pour l'ACP
num_vars <- data_acp[, c("rep1","rep2","rep3","rep4")]

# Colonnes metadata pour terreau et variete
meta <- data_acp[, c("terreau","variete")]
print(meta)

## # A tibble: 92 × 2
##    terreau variete
##    <chr>   <chr>  
##  1 Ma      Var2   
##  2 Ma      Var2   
##  3 Ma      Var2   
##  4 Ma      Var2   
##  5 Ma      Var2   
##  6 Ma      Var2   
##  7 Ma      Var2   
##  8 Ma      Var2   
##  9 Ma      Var2   
## 10 Ma      Var2   
## # ℹ 82 more rows
…
